D:\anycapital\workspaces\workspace\sp_hazelcast\src\main\java\capital\any\service\EmailActionService.java
D:\anycapital\workspaces\workspace\sp_hazelcast\src\main\java\capital\any\service\DBParameterService.java
D:\anycapital\workspaces\workspace\sp_hazelcast\src\main\java\capital\any\service\TransactionOperationService.java
D:\anycapital\workspaces\workspace\sp_hazelcast\src\main\java\capital\any\service\TransactionStatusService.java
D:\anycapital\workspaces\workspace\sp_hazelcast\src\main\java\capital\any\service\ProductTypeService.java
D:\anycapital\workspaces\workspace\sp_hazelcast\src\main\java\capital\any\service\CountryService.java
D:\anycapital\workspaces\workspace\sp_hazelcast\src\main\java\capital\any\service\LocaleService.java
D:\anycapital\workspaces\workspace\sp_hazelcast\src\main\java\capital\any\service\IssueChannelService.java
D:\anycapital\workspaces\workspace\sp_hazelcast\src\main\java\capital\any\service\ProductStatusService.java
D:\anycapital\workspaces\workspace\sp_hazelcast\src\main\java\capital\any\service\RegulationQuestionnaireStatusService.java
D:\anycapital\workspaces\workspace\sp_hazelcast\src\main\java\capital\any\service\DayCountConventionService.java
D:\anycapital\workspaces\workspace\sp_hazelcast\src\main\java\capital\any\service\InvestmentPossibilitiesService.java
D:\anycapital\workspaces\workspace\sp_hazelcast\src\main\java\capital\any\service\ProductMarketService.java
D:\anycapital\workspaces\workspace\sp_hazelcast\src\main\java\capital\any\hazelcast\HazelcastConfiguration.java
D:\anycapital\workspaces\workspace\sp_hazelcast\src\main\java\capital\any\service\ProductBarrierTypeService.java
D:\anycapital\workspaces\workspace\sp_hazelcast\src\main\java\capital\any\service\IssueDirectionService.java
D:\anycapital\workspaces\workspace\sp_hazelcast\src\main\java\capital\any\service\AnalyticsDepositService.java
D:\anycapital\workspaces\workspace\sp_hazelcast\src\main\java\capital\any\hazelcast\ServerSettings.java
D:\anycapital\workspaces\workspace\sp_hazelcast\src\main\java\capital\any\service\ProductCategoryService.java
D:\anycapital\workspaces\workspace\sp_hazelcast\src\main\java\capital\any\service\EmailTemplateService.java
D:\anycapital\workspaces\workspace\sp_hazelcast\src\main\java\capital\any\service\LanguageService.java
D:\anycapital\workspaces\workspace\sp_hazelcast\src\main\java\capital\any\service\InvestmentStatusService.java
D:\anycapital\workspaces\workspace\sp_hazelcast\src\main\java\capital\any\service\WriterService.java
D:\anycapital\workspaces\workspace\sp_hazelcast\src\main\java\capital\any\service\ProductCouponService.java
D:\anycapital\workspaces\workspace\sp_hazelcast\src\main\java\capital\any\service\ProductService.java
D:\anycapital\workspaces\workspace\sp_hazelcast\src\main\java\capital\any\service\CurrencyService.java
D:\anycapital\workspaces\workspace\sp_hazelcast\src\main\java\capital\any\service\IssueSubjectService.java
D:\anycapital\workspaces\workspace\sp_hazelcast\src\main\java\capital\any\service\MarketService.java
D:\anycapital\workspaces\workspace\sp_hazelcast\src\main\java\capital\any\hazelcast\HazelcastShutdown.java
D:\anycapital\workspaces\workspace\sp_hazelcast\src\main\java\capital\any\service\AllowIPService.java
D:\anycapital\workspaces\workspace\sp_hazelcast\src\main\java\capital\any\service\FileTypeService.java
D:\anycapital\workspaces\workspace\sp_hazelcast\src\main\java\capital\any\service\FileStatusService.java
D:\anycapital\workspaces\workspace\sp_hazelcast\src\main\java\capital\any\service\IssueReachedStatusService.java
D:\anycapital\workspaces\workspace\sp_hazelcast\src\main\java\capital\any\service\MessageResourceService.java
D:\anycapital\workspaces\workspace\sp_hazelcast\src\main\java\capital\any\Application.java
D:\anycapital\workspaces\workspace\sp_hazelcast\src\main\java\capital\any\service\IProductService.java
D:\anycapital\workspaces\workspace\sp_hazelcast\src\main\java\capital\any\service\ProductCouponFrequencyService.java
D:\anycapital\workspaces\workspace\sp_hazelcast\src\main\java\capital\any\service\TransactionPaymentTypeService.java
D:\anycapital\workspaces\workspace\sp_hazelcast\src\main\java\capital\any\service\MarketingLandingPageService.java
D:\anycapital\workspaces\workspace\sp_hazelcast\src\main\java\capital\any\service\IssueReactionService.java
D:\anycapital\workspaces\workspace\sp_hazelcast\src\main\java\capital\any\service\QmQuestionService.java
D:\anycapital\workspaces\workspace\sp_hazelcast\src\main\java\capital\any\hazelcast\HazelcastService.java
D:\anycapital\workspaces\workspace\sp_hazelcast\src\main\java\capital\any\service\ProductMaturityService.java
D:\anycapital\workspaces\workspace\sp_hazelcast\src\main\java\capital\any\service\AnalyticsInvestmentService.java
D:\anycapital\workspaces\workspace\sp_hazelcast\src\main\java\capital\any\service\MarketGroupService.java
